ParteF1/simulation/qsim/ImplementacionI2C.msim.vcd
$comment
	File created using the following command:
		vcd file ImplementacionI2C.msim.vcd -direction
$end
$date
	Mon Oct 27 14:12:00 2025
$end
$version
	ModelSim Version 10.1d
$end
$timescale
	1ps
$end
$scope module Esquematico_vlg_vec_tst $end
$var reg 1 ! clk $end
$var reg 1 " SCL $end
$var reg 1 # SDA $end
$var wire 1 $ Ack $end
$var wire 1 % fin_dato $end
$var wire 1 & fin_dir $end
$var wire 1 ' Hab_Dat $end
$var wire 1 ( Hab_dir $end
$var wire 1 ) soy $end
$var wire 1 * sampler $end
$scope module i1 $end
$var wire 1 + gnd $end
$var wire 1 , vcc $end
$var wire 1 - unknown $end
$var tri1 1 . devclrn $end
$var tri1 1 / devpor $end
$var tri1 1 0 devoe $end
$var wire 1 1 inst2|inst5|LPM_COUNTER_component|auto_generated|counter_comb_bita0~combout $end
$var wire 1 2 inst2|inst5|LPM_COUNTER_component|auto_generated|counter_comb_bita1~combout $end
$var wire 1 3 inst2|inst5|LPM_COUNTER_component|auto_generated|counter_comb_bita2~combout $end
$var wire 1 4 inst|inst10|LPM_COMPARE_component|auto_generated|aneb_result_wire[0]~0_combout $end
$var wire 1 5 inst3|Selector0~0_combout $end
$var wire 1 6 inst|inst2~combout $end
$var wire 1 7 inst2|inst~combout $end
$var wire 1 8 SCL~input_o $end
$var wire 1 9 Ack~output_o $end
$var wire 1 : Hab_dir~output_o $end
$var wire 1 ; Hab_Dat~output_o $end
$var wire 1 < fin_dir~output_o $end
$var wire 1 = soy~output_o $end
$var wire 1 > fin_dato~output_o $end
$var wire 1 ? clk~input_o $end
$var wire 1 @ inst|inst|LPM_COUNTER_component|auto_generated|counter_comb_bita0~COUT $end
$var wire 1 A inst|inst|LPM_COUNTER_component|auto_generated|counter_comb_bita1~COUT $end
$var wire 1 B inst|inst|LPM_COUNTER_component|auto_generated|counter_comb_bita2~combout $end
$var wire 1 C inst|inst|LPM_COUNTER_component|auto_generated|counter_comb_bita1~combout $end
$var wire 1 D inst|inst|LPM_COUNTER_component|auto_generated|counter_comb_bita0~combout $end
$var wire 1 E inst|inst11|LPM_COMPARE_component|auto_generated|aneb_result_wire[0]~0_combout $end
$var wire 1 F SDA~input_o $end
$var wire 1 G inst3|reg_fstate~2_combout $end
$var wire 1 H inst3|fstate.RyW~q $end
$var wire 1 I inst3|fstate.Acknowledge~q $end
$var wire 1 J inst3|Selector0~1_combout $end
$var wire 1 K inst3|fstate.Oscioso~q $end
$var wire 1 L inst3|Selector1~0_combout $end
$var wire 1 M inst3|fstate.Guardadir~q $end
$var wire 1 N inst2|inst5|LPM_COUNTER_component|auto_generated|counter_comb_bita0~COUT $end
$var wire 1 O inst2|inst5|LPM_COUNTER_component|auto_generated|counter_comb_bita1~COUT $end
$var wire 1 P inst2|inst5|LPM_COUNTER_component|auto_generated|counter_comb_bita2~COUT $end
$var wire 1 Q inst2|inst5|LPM_COUNTER_component|auto_generated|counter_comb_bita2~0_combout $end
$var wire 1 R inst3|Selector2~0_combout $end
$var wire 1 S inst3|fstate.Guardadato~q $end
$var wire 1 T inst2|inst5|LPM_COUNTER_component|auto_generated|counter_reg_bit [2] $end
$var wire 1 U inst2|inst5|LPM_COUNTER_component|auto_generated|counter_reg_bit [1] $end
$var wire 1 V inst2|inst5|LPM_COUNTER_component|auto_generated|counter_reg_bit [0] $end
$var wire 1 W inst|inst10|LPM_COMPARE_component|auto_generated|aneb_result_wire [0] $end
$var wire 1 X inst|inst9|LPM_SHIFTREG_component|dffs [6] $end
$var wire 1 Y inst|inst9|LPM_SHIFTREG_component|dffs [5] $end
$var wire 1 Z inst|inst9|LPM_SHIFTREG_component|dffs [4] $end
$var wire 1 [ inst|inst9|LPM_SHIFTREG_component|dffs [3] $end
$var wire 1 \ inst|inst9|LPM_SHIFTREG_component|dffs [2] $end
$var wire 1 ] inst|inst9|LPM_SHIFTREG_component|dffs [1] $end
$var wire 1 ^ inst|inst9|LPM_SHIFTREG_component|dffs [0] $end
$var wire 1 _ inst|inst|LPM_COUNTER_component|auto_generated|counter_reg_bit [2] $end
$var wire 1 ` inst|inst|LPM_COUNTER_component|auto_generated|counter_reg_bit [1] $end
$var wire 1 a inst|inst|LPM_COUNTER_component|auto_generated|counter_reg_bit [0] $end
$upscope $end
$upscope $end
$enddefinitions $end
#0
$dumpvars
0!
0"
1#
0$
0%
0&
0'
0(
0)
x*
0+
1,
x-
1.
1/
10
11
02
03
14
15
06
07
08
09
0:
0;
0<
0=
0>
0?
0@
1A
0B
0C
1D
1E
1F
0G
0H
0I
0J
0K
0L
0M
0N
1O
0P
0Q
0R
0S
0V
0U
0T
1W
0^
0]
0\
0[
0Z
0Y
0X
0a
0`
0_
$end
#5000
1!
1?
0*
#10000
0#
0!
0F
0?
1*
1L
05
1J
#15000
1!
1?
0*
1K
1M
1:
1(
#20000
1#
0!
1F
0?
1*
#25000
1"
1!
18
1?
0*
16
1^
1a
1@
0D
1C
#30000
0!
0?
1*
#35000
1!
1?
0*
#40000
0!
0?
1*
#45000
1!
1?
0*
#50000
0"
0!
08
0?
1*
06
#55000
1!
1?
0*
#60000
0!
0?
1*
#65000
1!
1?
0*
#70000
0!
0?
1*
#75000
1"
1!
18
1?
0*
16
1]
0a
1`
0@
1D
0A
0C
1A
1C
1B
0B
#80000
0!
0?
1*
#85000
1!
1?
0*
#90000
0!
0?
1*
#95000
1!
1?
0*
#100000
0"
0!
08
0?
1*
06
#105000
1!
1?
0*
#110000
0!
0?
1*
#115000
1!
1?
0*
#120000
0!
0?
1*
#125000
1"
1!
18
1?
0*
16
1\
1a
1@
0D
0A
0C
1B
#130000
0!
0?
1*
#135000
1!
1?
0*
#140000
0!
0?
1*
#145000
1!
1?
0*
#150000
0"
0!
08
0?
1*
06
#155000
1!
1?
0*
#160000
0!
0?
1*
#165000
1!
1?
0*
#170000
0!
0?
1*
#175000
1"
1!
18
1?
0*
16
0a
0`
1_
1[
0@
1D
1A
1C
0B
0C
1B
#180000
0!
0?
1*
#185000
1!
1?
0*
#190000
0!
0?
1*
#195000
1!
1?
0*
#200000
0"
0!
08
0?
1*
06
#205000
1!
1?
0*
#210000
0!
0?
1*
#215000
1!
1?
0*
#220000
0!
0?
1*
#225000
1"
1!
18
1?
0*
16
1a
1Z
1@
0D
1C
#230000
0!
0?
1*
#235000
1!
1?
0*
#240000
0!
0?
1*
#245000
1!
1?
0*
#250000
0"
0!
08
0?
1*
06
#255000
1!
1?
0*
#260000
0!
0?
1*
#265000
1!
1?
0*
#270000
0!
0?
1*
#275000
1"
1!
18
1?
0*
16
0a
1`
1Y
0@
1D
0A
0C
1A
1C
0B
1B
#280000
0!
0?
1*
#285000
1!
1?
0*
#290000
0!
0?
1*
#295000
1!
1?
0*
#300000
0"
0!
08
0?
1*
06
#305000
1!
1?
0*
#310000
0!
0?
1*
#315000
1!
1?
0*
#320000
0!
0?
1*
#325000
1"
1!
18
1?
0*
16
1a
1X
0E
1@
0D
04
0L
0J
0A
0C
0W
1<
1&
0B
1J
1G
1=
1)
#330000
0!
0?
1*
#335000
1!
1?
0*
1H
0M
0G
06
0:
0(
#340000
0!
0?
1*
#345000
1!
1?
0*
0H
1I
1R
19
1$
#350000
0"
0!
08
0?
1*
#355000
1!
1?
0*
1S
0I
1;
09
1'
0$
#360000
0!
0?
1*
#365000
1!
1?
0*
#370000
0!
0?
1*
#375000
1"
1!
18
1?
0*
17
1V
1N
01
12
#380000
0!
0?
1*
#385000
1!
1?
0*
#390000
0!
0?
1*
#395000
1!
1?
0*
#400000
0"
0!
08
0?
1*
07
#405000
1!
1?
0*
#410000
0!
0?
1*
#415000
1!
1?
0*
#420000
0!
0?
1*
#425000
1"
1!
18
1?
0*
17
0V
1U
0N
11
0O
02
1O
12
13
03
#430000
0!
0?
1*
#435000
1!
1?
0*
#440000
0!
0?
1*
#445000
1!
1?
0*
#450000
0"
0!
08
0?
1*
07
#455000
1!
1?
0*
#460000
0!
0?
1*
#465000
1!
1?
0*
#470000
0!
0?
1*
#475000
1"
1!
18
1?
0*
17
1V
1N
01
0O
02
13
#480000
0!
0?
1*
#485000
1!
1?
0*
#490000
0!
0?
1*
#495000
1!
1?
0*
#500000
0"
0!
08
0?
1*
07
#505000
1!
1?
0*
#510000
0!
0?
1*
#515000
1!
1?
0*
#520000
0!
0?
1*
#525000
1"
1!
18
1?
0*
17
0V
0U
1T
0N
11
1O
12
1P
03
02
0P
13
1Q
0R
15
1>
1%
0Q
0J
1R
05
0>
0%
1J
#530000
0!
0?
1*
#535000
1!
1?
0*
#540000
0!
0?
1*
#545000
1!
1?
0*
#550000
0"
0!
08
0?
1*
07
#555000
1!
1?
0*
#560000
0!
0?
1*
#565000
1!
1?
0*
#570000
0!
0?
1*
#575000
1"
1!
18
1?
0*
17
1V
1N
01
12
#580000
0!
0?
1*
#585000
1!
1?
0*
#590000
0!
0?
1*
#595000
1!
1?
0*
#600000
0"
0!
08
0?
1*
07
#605000
1!
1?
0*
#610000
0!
0?
1*
#615000
1!
1?
0*
#620000
0!
0?
1*
#625000
1"
1!
18
1?
0*
17
0V
1U
0N
11
0O
02
1O
12
1P
03
0P
13
1Q
0R
15
1>
1%
0Q
0J
1R
05
0>
0%
1J
#630000
0!
0?
1*
#635000
1!
1?
0*
#640000
0!
0?
1*
#645000
1!
1?
0*
#650000
0"
0!
08
0?
1*
07
#655000
1!
1?
0*
#660000
0!
0?
1*
#665000
1!
1?
0*
#670000
0!
0?
1*
#675000
1"
1!
18
1?
0*
17
1V
1N
01
0O
02
1P
03
1Q
0R
15
1>
1%
0J
#680000
0!
0?
1*
#685000
1!
1?
0*
0K
0S
07
0;
0'
#690000
0!
0?
1*
#695000
1!
1?
0*
#700000
0"
0!
08
0?
1*
#705000
1!
1?
0*
#710000
0!
0?
1*
#715000
1!
1?
0*
#720000
0!
0?
1*
#725000
1"
1!
18
1?
0*
#730000
0!
0?
1*
#735000
1!
1?
0*
#740000
0!
0?
1*
#745000
1!
1?
0*
#750000
0"
0!
08
0?
1*
#755000
1!
1?
0*
#760000
0!
0?
1*
#765000
1!
1?
0*
#770000
0!
0?
1*
#775000
1"
1!
18
1?
0*
#780000
0!
0?
1*
#785000
1!
1?
0*
#790000
0!
0?
1*
#795000
1!
1?
0*
#800000
0"
0!
08
0?
1*
#805000
1!
1?
0*
#810000
0!
0?
1*
#815000
1!
1?
0*
#820000
0!
0?
1*
#825000
1"
1!
18
1?
0*
#830000
0!
0?
1*
#835000
1!
1?
0*
#840000
0!
0?
1*
#845000
1!
1?
0*
#850000
0"
0!
08
0?
1*
#855000
1!
1?
0*
#860000
0!
0?
1*
#865000
1!
1?
0*
#870000
0!
0?
1*
#875000
1"
1!
18
1?
0*
#880000
0!
0?
1*
#885000
1!
1?
0*
#890000
0!
0?
1*
#895000
1!
1?
0*
#900000
0"
0!
08
0?
1*
#905000
1!
1?
0*
#910000
0!
0?
1*
#915000
1!
1?
0*
#920000
0!
0?
1*
#925000
1"
1!
18
1?
0*
#930000
0!
0?
1*
#935000
1!
1?
0*
#940000
0!
0?
1*
#945000
1!
1?
0*
#950000
0"
0!
08
0?
1*
#955000
1!
1?
0*
#960000
0!
0?
1*
#965000
1!
1?
0*
#970000
0!
0?
1*
#975000
1"
1!
18
1?
0*
#980000
0!
0?
1*
#985000
1!
1?
0*
#990000
0!
0?
1*
#995000
1!
1?
0*
