ParteC/simulation/qsim/MultiplicadorConSigno.msim.vcd
$comment
	File created using the following command:
		vcd file MultiplicadorConSigno.msim.vcd -direction
$end
$date
	Sun Oct 19 20:29:24 2025
$end
$version
	ModelSim Version 10.1d
$end
$timescale
	1ps
$end
$scope module MultiplicadorConSigno_vlg_vec_tst $end
$var reg 1 ! A0 $end
$var reg 1 " A1 $end
$var reg 1 # B0 $end
$var reg 1 $ B1 $end
$var reg 1 % clk $end
$var wire 1 & p0 $end
$var wire 1 ' p1 $end
$var wire 1 ( p2 $end
$var wire 1 ) p3 $end
$var wire 1 * sampler $end
$scope module i1 $end
$var wire 1 + gnd $end
$var wire 1 , vcc $end
$var wire 1 - unknown $end
$var tri1 1 . devclrn $end
$var tri1 1 / devpor $end
$var tri1 1 0 devoe $end
$var wire 1 1 p0~output_o $end
$var wire 1 2 p1~output_o $end
$var wire 1 3 p2~output_o $end
$var wire 1 4 p3~output_o $end
$var wire 1 5 clk~input_o $end
$var wire 1 6 B0~input_o $end
$var wire 1 7 inst28~feeder_combout $end
$var wire 1 8 inst28~q $end
$var wire 1 9 A0~input_o $end
$var wire 1 : inst27~feeder_combout $end
$var wire 1 ; inst27~q $end
$var wire 1 < inst~combout $end
$var wire 1 = inst26~q $end
$var wire 1 > A1~input_o $end
$var wire 1 ? inst22~q $end
$var wire 1 @ inst14|z~combout $end
$var wire 1 A inst25~q $end
$var wire 1 B B1~input_o $end
$var wire 1 C inst21~feeder_combout $end
$var wire 1 D inst21~q $end
$var wire 1 E inst17|z~0_combout $end
$var wire 1 F inst30~q $end
$var wire 1 G inst20|z~0_combout $end
$var wire 1 H inst29~q $end
$upscope $end
$upscope $end
$enddefinitions $end
#0
$dumpvars
0!
0"
0#
0$
0%
x&
x'
x(
x)
x*
0+
1,
x-
1.
1/
10
x1
x2
x3
x4
05
06
x7
08
09
x:
0;
x<
0=
0>
0?
x@
0A
0B
xC
0D
xE
0F
xG
0H
$end
#501
0<
#821
0E
0G
#829
0@
#3045
04
0)
#3437
0:
#3494
02
0'
#3771
01
0&
#3902
03
0(
#4064
07
#4535
0C
#5000
1%
0*
#5776
15
#10000
0%
1*
#10883
05
#15000
1%
0*
#15776
15
#20000
0%
1*
#20883
05
#25000
1%
0*
#25776
15
#30000
0%
1*
#30883
05
#35000
1%
0*
#35776
15
#40000
1!
1"
1#
1$
0%
1*
#40766
1B
1>
#40786
19
#40806
16
#40883
05
#43997
1:
#44577
17
#45000
1%
0*
#45001
1C
#45776
15
#47501
18
1;
1?
1D
#47936
1<
#50000
0%
1*
#50883
05
#55000
1%
0*
#55776
15
#57501
1=
#60000
0%
1*
#60883
05
#61291
11
1&
#65000
1%
0*
#65776
15
#70000
0%
1*
#70883
05
#75000
1%
0*
#75776
15
#80000
0%
1*
#80883
05
#85000
1%
0*
#85776
15
#90000
0%
1*
#90883
05
#95000
1%
0*
#95776
15
#100000
0%
1*
#100883
05
#105000
1%
0*
#105776
15
#110000
0%
1*
#110883
05
#115000
1%
0*
#115776
15
#120000
0%
1*
#120883
05
#125000
1%
0*
#125776
15
#130000
0%
1*
#130883
05
#135000
1%
0*
#135776
15
#140000
0%
1*
#140883
05
#145000
1%
0*
#145776
15
#150000
0%
1*
#150883
05
#155000
1%
0*
#155776
15
#160000
0%
1*
#160883
05
#165000
1%
0*
#165776
15
#170000
0%
1*
#170883
05
#175000
1%
0*
#175776
15
#180000
0!
0"
0#
0$
0%
1*
#180873
0B
0>
#180883
05
#180893
09
#180913
06
#184330
0:
#184977
07
#185000
1%
0*
#185408
0C
#185776
15
#187501
08
0;
0?
0D
#188002
0<
#190000
0%
1*
#190883
05
#195000
1%
0*
#195776
15
#197501
0=
#200000
0%
1*
#200883
05
#201272
01
0&
#205000
1%
0*
#205776
15
#210000
0%
1*
#210883
05
#215000
1%
0*
#215776
15
#220000
0%
1*
#220883
05
#225000
1%
0*
#225776
15
#230000
0%
1*
#230883
05
#235000
1%
0*
#235776
15
#240000
0%
1*
#240883
05
#245000
1%
0*
#245776
15
#250000
0%
1*
#250883
05
#255000
1%
0*
#255776
15
#260000
0%
1*
#260883
05
#265000
1%
0*
#265776
15
#270000
0%
1*
#270883
05
#275000
1%
0*
#275776
15
#280000
0%
1*
#280883
05
#285000
1%
0*
#285776
15
#290000
1!
1#
0%
1*
#290786
19
#290806
16
#290883
05
#293997
1:
#294577
17
#295000
1%
0*
#295776
15
#297501
18
1;
#297936
1<
#300000
0%
1*
#300883
05
#305000
1%
0*
#305776
15
#307501
1=
#310000
0%
1*
#310883
05
#311291
11
1&
#315000
1%
0*
#315776
15
#320000
0%
1*
#320883
05
#325000
1%
0*
#325776
15
#330000
0%
1*
#330883
05
#335000
1%
0*
#335776
15
#340000
0%
1*
#340883
05
#345000
1%
0*
#345776
15
#350000
0%
1*
#350883
05
#355000
1%
0*
#355776
15
#360000
0%
1*
#360883
05
#365000
1%
0*
#365776
15
#370000
0%
1*
#370883
05
#375000
1%
0*
#375776
15
#380000
0%
1*
#380883
05
#385000
1%
0*
#385776
15
#390000
0%
1*
#390883
05
#395000
1%
0*
#395776
15
#400000
0%
1*
#400883
05
#405000
1%
0*
#405776
15
#410000
0%
1*
#410883
05
#415000
1%
0*
#415776
15
#420000
0%
1*
#420883
05
#425000
1%
0*
#425776
15
#430000
0!
0#
0%
1*
#430883
05
#430893
09
#430913
06
#434330
0:
#434977
07
#435000
1%
0*
#435776
15
#437501
08
0;
#438002
0<
#440000
0%
1*
#440883
05
#445000
1%
0*
#445776
15
#447501
0=
#450000
0%
1*
#450883
05
#451272
01
0&
#455000
1%
0*
#455776
15
#460000
0%
1*
#460883
05
#465000
1%
0*
#465776
15
#470000
0%
1*
#470883
05
#475000
1%
0*
#475776
15
#480000
0%
1*
#480883
05
#485000
1%
0*
#485776
15
#490000
0%
1*
#490883
05
#495000
1%
0*
#495776
15
#500000
0%
1*
#500883
05
#505000
1%
0*
#505776
15
#510000
1$
1!
1#
0%
1*
#510766
1B
#510786
19
#510806
16
#510883
05
#513997
1:
#514577
17
#515000
1%
0*
#515001
1C
#515776
15
#517501
18
1;
1D
#517935
1G
#517936
1<
#517937
1E
#518217
1@
#520000
0%
1*
#520883
05
#525000
1%
0*
#525776
15
#527501
1=
1A
1F
1H
#530000
0%
1*
#530580
14
1)
#530883
05
#530993
12
1'
#531291
11
1&
#531446
13
1(
#535000
1%
0*
#535776
15
#540000
0%
1*
#540883
05
#545000
1%
0*
#545776
15
#550000
0%
1*
#550883
05
#555000
1%
0*
#555776
15
#560000
0%
1*
#560883
05
#565000
1%
0*
#565776
15
#570000
0%
1*
#570883
05
#575000
1%
0*
#575776
15
#580000
0%
1*
#580883
05
#585000
1%
0*
#585776
15
#590000
0%
1*
#590883
05
#595000
1%
0*
#595776
15
#600000
0%
1*
#600883
05
#605000
1%
0*
#605776
15
#610000
0%
1*
#610883
05
#615000
1%
0*
#615776
15
#620000
0%
1*
#620883
05
#625000
1%
0*
#625776
15
#630000
0%
1*
#630883
05
#635000
1%
0*
#635776
15
#640000
0$
0!
0#
0%
1*
#640873
0B
#640883
05
#640893
09
#640913
06
#644330
0:
#644977
07
#645000
1%
0*
#645408
0C
#645776
15
#647501
08
0;
0D
#648002
0<
#648142
0G
#648144
0E
#648330
0@
#650000
0%
1*
#650883
05
#655000
1%
0*
#655776
15
#657501
0=
0A
0F
0H
#660000
0%
1*
#660546
04
0)
#660883
05
#660995
02
0'
#661272
01
0&
#661403
03
0(
#665000
1%
0*
#665776
15
#670000
0%
1*
#670883
05
#675000
1%
0*
#675776
15
#680000
0%
1*
#680883
05
#685000
1%
0*
#685776
15
#690000
0%
1*
#690883
05
#695000
1%
0*
#695776
15
#700000
0%
1*
#700883
05
#705000
1%
0*
#705776
15
#710000
0%
1*
#710883
05
#715000
1%
0*
#715776
15
#720000
0%
1*
#720883
05
#725000
1%
0*
#725776
15
#730000
0%
1*
#730883
05
#735000
1%
0*
#735776
15
#740000
0%
1*
#740883
05
#745000
1%
0*
#745776
15
#750000
0%
1*
#750883
05
#755000
1%
0*
#755776
15
#760000
0%
1*
#760883
05
#765000
1%
0*
#765776
15
#770000
0%
1*
#770883
05
#775000
1%
0*
#775776
15
#780000
0%
1*
#780883
05
#785000
1%
0*
#785776
15
#790000
0%
1*
#790883
05
#795000
1%
0*
#795776
15
#800000
0%
1*
#800883
05
#805000
1%
0*
#805776
15
#810000
0%
1*
#810883
05
#815000
1%
0*
#815776
15
#820000
0%
1*
#820883
05
#825000
1%
0*
#825776
15
#830000
0%
1*
#830883
05
#835000
1%
0*
#835776
15
#840000
0%
1*
#840883
05
#845000
1%
0*
#845776
15
#850000
0%
1*
#850883
05
#855000
1%
0*
#855776
15
#860000
0%
1*
#860883
05
#865000
1%
0*
#865776
15
#870000
0%
1*
#870883
05
#875000
1%
0*
#875776
15
#880000
0%
1*
#880883
05
#885000
1%
0*
#885776
15
#890000
0%
1*
#890883
05
#895000
1%
0*
#895776
15
#900000
0%
1*
#900883
05
#905000
1%
0*
#905776
15
#910000
0%
1*
#910883
05
#915000
1%
0*
#915776
15
#920000
0%
1*
#920883
05
#925000
1%
0*
#925776
15
#930000
0%
1*
#930883
05
#935000
1%
0*
#935776
15
#940000
0%
1*
#940883
05
#945000
1%
0*
#945776
15
#950000
0%
1*
#950883
05
#955000
1%
0*
#955776
15
#960000
0%
1*
#960883
05
#965000
1%
0*
#965776
15
#970000
0%
1*
#970883
05
#975000
1%
0*
#975776
15
#980000
0%
1*
#980883
05
#985000
1%
0*
#985776
15
#990000
0%
1*
#990883
05
#995000
1%
0*
#995776
15
