ParteE/StateTool/simulation/qsim/StateTool.msim.vcd
$comment
	File created using the following command:
		vcd file StateTool.msim.vcd -direction
$end
$date
	Sun Oct 19 21:46:53 2025
$end
$version
	ModelSim Version 10.1d
$end
$timescale
	1ps
$end
$scope module StateTool_vlg_vec_tst $end
$var reg 1 ! clock $end
$var reg 1 " reset $end
$var reg 1 # X $end
$var wire 1 $ Z0 $end
$var wire 1 % Z1 $end
$var wire 1 & Z2 $end
$var wire 1 ' Z3 $end
$var wire 1 ( sampler $end
$scope module i1 $end
$var wire 1 ) gnd $end
$var wire 1 * vcc $end
$var wire 1 + unknown $end
$var tri1 1 , devclrn $end
$var tri1 1 - devpor $end
$var tri1 1 . devoe $end
$var wire 1 / clock~input_o $end
$var wire 1 0 clock~inputclkctrl_outclk $end
$var wire 1 1 Z0~output_o $end
$var wire 1 2 Z1~output_o $end
$var wire 1 3 Z2~output_o $end
$var wire 1 4 Z3~output_o $end
$var wire 1 5 reset~input_o $end
$var wire 1 6 X~input_o $end
$var wire 1 7 reg_fstate.state4~0_combout $end
$var wire 1 8 fstate.state4~q $end
$var wire 1 9 reg_fstate.state5~0_combout $end
$var wire 1 : fstate.state5~q $end
$var wire 1 ; reg_fstate.state2~0_combout $end
$var wire 1 < fstate.state2~q $end
$var wire 1 = reg_fstate.state3~0_combout $end
$var wire 1 > fstate.state3~q $end
$var wire 1 ? reg_fstate.state7~0_combout $end
$var wire 1 @ fstate.state7~q $end
$var wire 1 A reg_fstate.state6~0_combout $end
$var wire 1 B fstate.state6~q $end
$var wire 1 C reg_fstate.state1~0_combout $end
$var wire 1 D fstate.state1~q $end
$var wire 1 E Z0~0_combout $end
$var wire 1 F Z1~0_combout $end
$var wire 1 G Z2~0_combout $end
$var wire 1 H Z3~0_combout $end
$upscope $end
$upscope $end
$enddefinitions $end
#0
$dumpvars
0!
0"
1#
0$
0%
0&
0'
x(
0)
1*
x+
1,
1-
1.
0/
00
01
02
03
04
05
16
07
08
09
0:
1;
0<
0=
0>
0?
0@
0A
0B
1C
0D
1E
0F
0G
0H
$end
#50000
1!
1/
10
0(
1D
1<
0;
1=
1F
1G
12
13
1%
1&
#100000
0!
0/
00
1(
#150000
1!
1/
10
0(
1>
0<
1A
0E
0=
1H
11
14
1$
1'
#200000
0!
0/
00
1(
#250000
1!
1/
10
0(
1B
0>
0C
0A
0F
0G
02
03
0%
0&
#300000
0!
0/
00
1(
#350000
1!
1/
10
0(
0D
0B
1E
1;
1C
0H
01
04
0$
0'
#400000
0#
0!
06
0/
00
1(
0;
17
#450000
1!
1/
10
0(
1D
18
0E
07
19
11
1$
#500000
0!
0/
00
1(
#550000
1!
1/
10
0(
1:
08
1=
09
1F
12
1%
#600000
0!
0/
00
1(
#650000
1!
1/
10
0(
1>
0:
1?
0=
1H
1G
14
13
1'
1&
#700000
0!
0/
00
1(
#750000
1!
1/
10
0(
1@
0>
0C
0?
0H
04
0'
#800000
0!
0/
00
1(
#850000
1!
1/
10
0(
0D
0@
1E
17
1C
0F
0G
01
02
03
0$
0%
0&
#900000
0!
0/
00
1(
#950000
1!
1/
10
0(
1D
18
0E
07
19
11
1$
