Preguntas Iniciales + VHDL/simulation/qsim/FFJK.msim.vcd
$comment
	File created using the following command:
		vcd file FFJK.msim.vcd -direction
$end
$date
	Sat Oct 18 17:21:45 2025
$end
$version
	ModelSim Version 10.1d
$end
$timescale
	1ps
$end
$scope module FFJK_vlg_vec_tst $end
$var reg 1 ! clk $end
$var reg 1 " J $end
$var reg 1 # K $end
$var wire 1 $ Qout $end
$var wire 1 % sampler $end
$scope module i1 $end
$var wire 1 & gnd $end
$var wire 1 ' vcc $end
$var wire 1 ( unknown $end
$var tri1 1 ) devclrn $end
$var tri1 1 * devpor $end
$var tri1 1 + devoe $end
$var wire 1 , J~input_o $end
$var wire 1 - Qout~output_o $end
$var wire 1 . clk~input_o $end
$var wire 1 / K~input_o $end
$var wire 1 0 q~0_combout $end
$var wire 1 1 q~q $end
$upscope $end
$upscope $end
$enddefinitions $end
#0
$dumpvars
0!
0"
0#
0$
x%
0&
1'
x(
1)
1*
1+
0,
0-
0.
0/
00
01
$end
#5000
1!
1.
0%
#10000
0!
0.
1%
#15000
1!
1.
0%
#20000
0!
0.
1%
#25000
1!
1.
0%
#30000
0!
0.
1%
#35000
1!
1.
0%
#40000
0!
0.
1%
#45000
1!
1.
0%
#50000
0!
0.
1%
#55000
1!
1.
0%
#60000
0!
0.
1%
#65000
1!
1.
0%
#70000
1"
0!
1,
0.
1%
10
#75000
1!
1.
0%
11
1-
1$
#80000
0!
0.
1%
#85000
1!
1.
0%
#90000
0!
0.
1%
#95000
1!
1.
0%
#100000
0!
0.
1%
#105000
1!
1.
0%
#110000
0!
0.
1%
#115000
1!
1.
0%
#120000
0!
0.
1%
#125000
1!
1.
0%
#130000
0!
0.
1%
#135000
1!
1.
0%
#140000
0!
0.
1%
#145000
1!
1.
0%
#150000
0!
0.
1%
#155000
1!
1.
0%
#160000
0!
0.
1%
#165000
1!
1.
0%
#170000
0"
0!
0,
0.
1%
#175000
1!
1.
0%
#180000
0!
0.
1%
#185000
1!
1.
0%
#190000
0!
0.
1%
#195000
1!
1.
0%
#200000
0!
0.
1%
#205000
1!
1.
0%
#210000
0!
0.
1%
#215000
1!
1.
0%
#220000
0!
0.
1%
#225000
1!
1.
0%
#230000
0!
0.
1%
#235000
1!
1.
0%
#240000
0!
0.
1%
#245000
1!
1.
0%
#250000
0!
0.
1%
#255000
1!
1.
0%
#260000
0!
0.
1%
#265000
1!
1.
0%
#270000
1#
0!
1/
0.
1%
00
#275000
1!
1.
0%
01
0-
0$
#280000
0!
0.
1%
#285000
1!
1.
0%
#290000
0!
0.
1%
#295000
1!
1.
0%
#300000
0!
0.
1%
#305000
1!
1.
0%
#310000
0!
0.
1%
#315000
1!
1.
0%
#320000
0!
0.
1%
#325000
1!
1.
0%
#330000
0!
0.
1%
#335000
1!
1.
0%
#340000
0!
0.
1%
#345000
1!
1.
0%
#350000
0!
0.
1%
#355000
1!
1.
0%
#360000
0!
0.
1%
#365000
1!
1.
0%
#370000
0!
0.
1%
#375000
1!
1.
0%
#380000
0!
0.
1%
#385000
1!
1.
0%
#390000
0#
0!
0/
0.
1%
#395000
1!
1.
0%
#400000
0!
0.
1%
#405000
1!
1.
0%
#410000
0!
0.
1%
#415000
1!
1.
0%
#420000
0!
0.
1%
#425000
1!
1.
0%
#430000
0!
0.
1%
#435000
1!
1.
0%
#440000
0!
0.
1%
#445000
1!
1.
0%
#450000
0!
0.
1%
#455000
1!
1.
0%
#460000
0!
0.
1%
#465000
1!
1.
0%
#470000
0!
0.
1%
#475000
1!
1.
0%
#480000
0!
0.
1%
#485000
1!
1.
0%
#490000
0!
0.
1%
#495000
1!
1.
0%
#500000
0!
0.
1%
#505000
1!
1.
0%
#510000
0!
0.
1%
#515000
1!
1.
0%
#520000
0!
0.
1%
#525000
1!
1.
0%
#530000
1"
1#
0!
1,
1/
0.
1%
10
#535000
1!
1.
0%
11
00
1-
1$
#540000
0!
0.
1%
#545000
1!
1.
0%
01
10
0-
0$
#550000
0!
0.
1%
#555000
1!
1.
0%
11
00
1-
1$
#560000
0!
0.
1%
#565000
1!
1.
0%
01
10
0-
0$
#570000
0!
0.
1%
#575000
1!
1.
0%
11
00
1-
1$
#580000
0!
0.
1%
#585000
1!
1.
0%
01
10
0-
0$
#590000
0!
0.
1%
#595000
1!
1.
0%
11
00
1-
1$
#600000
0!
0.
1%
#605000
1!
1.
0%
01
10
0-
0$
#610000
0!
0.
1%
#615000
1!
1.
0%
11
00
1-
1$
#620000
0"
0#
0!
0,
0/
0.
1%
10
#625000
1!
1.
0%
#630000
0!
0.
1%
#635000
1!
1.
0%
#640000
0!
0.
1%
#645000
1!
1.
0%
#650000
0!
0.
1%
#655000
1!
1.
0%
#660000
0!
0.
1%
#665000
1!
1.
0%
#670000
0!
0.
1%
#675000
1!
1.
0%
#680000
0!
0.
1%
#685000
1!
1.
0%
#690000
0!
0.
1%
#695000
1!
1.
0%
#700000
0!
0.
1%
#705000
1!
1.
0%
#710000
0!
0.
1%
#715000
1!
1.
0%
#720000
0!
0.
1%
#725000
1!
1.
0%
#730000
1"
1#
0!
1,
1/
0.
1%
00
#735000
1!
1.
0%
01
10
0-
0$
#740000
0!
0.
1%
#745000
1!
1.
0%
11
00
1-
1$
#750000
0!
0.
1%
#755000
1!
1.
0%
01
10
0-
0$
#760000
0!
0.
1%
#765000
1!
1.
0%
11
00
1-
1$
#770000
0!
0.
1%
#775000
1!
1.
0%
01
10
0-
0$
#780000
0!
0.
1%
#785000
1!
1.
0%
11
00
1-
1$
#790000
0!
0.
1%
#795000
1!
1.
0%
01
10
0-
0$
#800000
0!
0.
1%
#805000
1!
1.
0%
11
00
1-
1$
#810000
0!
0.
1%
#815000
1!
1.
0%
01
10
0-
0$
#820000
0!
0.
1%
#825000
1!
1.
0%
11
00
1-
1$
#830000
0!
0.
1%
#835000
1!
1.
0%
01
10
0-
0$
#840000
0"
0#
0!
0,
0/
0.
1%
00
#845000
1!
1.
0%
#850000
0!
0.
1%
#855000
1!
1.
0%
#860000
0!
0.
1%
#865000
1!
1.
0%
#870000
0!
0.
1%
#875000
1!
1.
0%
#880000
0!
0.
1%
#885000
1!
1.
0%
#890000
0!
0.
1%
#895000
1!
1.
0%
#900000
0!
0.
1%
#905000
1!
1.
0%
#910000
0!
0.
1%
#915000
1!
1.
0%
#920000
0!
0.
1%
#925000
1!
1.
0%
#930000
0!
0.
1%
#935000
1!
1.
0%
#940000
0!
0.
1%
#945000
1!
1.
0%
#950000
0!
0.
1%
#955000
1!
1.
0%
#960000
0!
0.
1%
#965000
1!
1.
0%
#970000
0!
0.
1%
#975000
1!
1.
0%
#980000
0!
0.
1%
#985000
1!
1.
0%
#990000
0!
0.
1%
#995000
1!
1.
0%
