ParteD/simulation/qsim/MultiModyCA2.msim.vcd
$comment
	File created using the following command:
		vcd file MultiModyCA2.msim.vcd -direction
$end
$date
	Mon Oct 20 15:48:44 2025
$end
$version
	ModelSim Version 10.1d
$end
$timescale
	1ps
$end
$scope module MultiModyCA2_vlg_vec_tst $end
$var reg 1 ! A0 $end
$var reg 1 " A1 $end
$var reg 1 # B0 $end
$var reg 1 $ B1 $end
$var reg 1 % clk $end
$var wire 1 & s0 $end
$var wire 1 ' s1 $end
$var wire 1 ( s2 $end
$var wire 1 ) s3 $end
$var wire 1 * u0 $end
$var wire 1 + u1 $end
$var wire 1 , u2 $end
$var wire 1 - u3 $end
$var wire 1 . sampler $end
$scope module i1 $end
$var wire 1 / gnd $end
$var wire 1 0 vcc $end
$var wire 1 1 unknown $end
$var tri1 1 2 devclrn $end
$var tri1 1 3 devpor $end
$var tri1 1 4 devoe $end
$var wire 1 5 s3~output_o $end
$var wire 1 6 s2~output_o $end
$var wire 1 7 s1~output_o $end
$var wire 1 8 s0~output_o $end
$var wire 1 9 u0~output_o $end
$var wire 1 : u1~output_o $end
$var wire 1 ; u2~output_o $end
$var wire 1 < u3~output_o $end
$var wire 1 = clk~input_o $end
$var wire 1 > clk~inputclkctrl_outclk $end
$var wire 1 ? B0~input_o $end
$var wire 1 @ inst28~feeder_combout $end
$var wire 1 A inst28~q $end
$var wire 1 B A1~input_o $end
$var wire 1 C inst22~feeder_combout $end
$var wire 1 D inst22~q $end
$var wire 1 E B1~input_o $end
$var wire 1 F inst21~feeder_combout $end
$var wire 1 G inst21~q $end
$var wire 1 H inst20|z~0_combout $end
$var wire 1 I inst29~q $end
$var wire 1 J inst17|z~0_combout $end
$var wire 1 K inst30~q $end
$var wire 1 L A0~input_o $end
$var wire 1 M inst27~feeder_combout $end
$var wire 1 N inst27~q $end
$var wire 1 O inst14|z~combout $end
$var wire 1 P inst25~q $end
$var wire 1 Q inst~combout $end
$var wire 1 R inst26~q $end
$var wire 1 S inst19~feeder_combout $end
$var wire 1 T inst19~q $end
$var wire 1 U inst3|z~0_combout $end
$var wire 1 V inst18~q $end
$var wire 1 W inst9|z~0_combout $end
$var wire 1 X inst15~q $end
$var wire 1 Y inst9|cout~0_combout $end
$var wire 1 Z inst11~q $end
$upscope $end
$upscope $end
$enddefinitions $end
#0
$dumpvars
0!
0"
0#
0$
0%
x&
x'
x(
x)
x*
x+
x,
x-
x.
0/
10
x1
12
13
14
x5
x6
x7
x8
x9
x:
x;
x<
0=
x>
0?
x@
0A
0B
xC
0D
0E
xF
0G
xH
0I
xJ
0K
0L
xM
0N
xO
0P
xQ
0R
xS
0T
xU
0V
xW
0X
xY
0Z
$end
#173
0>
#492
0S
#519
0Y
#539
0W
#544
0Q
#702
0U
#794
0O
#848
0H
#855
0J
#2718
0<
0-
#2989
0:
0+
#3004
06
0(
#3014
05
0)
#3074
0;
0,
#3107
08
0&
#3140
0F
#3143
0@
#3199
07
0'
#3426
0C
#3446
0M
#4206
09
0*
#10000
1%
0.
#10819
1=
#11006
1>
#20000
0%
1.
#20924
0=
#21097
0>
#30000
1%
0.
#30819
1=
#31006
1>
#40000
0%
1.
#40924
0=
#41097
0>
#50000
1!
1"
1#
1$
1%
0.
#50749
1L
#50799
1E
1?
#50809
1B
#50819
1=
#51006
1>
#53705
1F
#53708
1@
#53979
1M
#54007
1C
#60000
0%
1.
#60924
0=
#61097
0>
#70000
1%
0.
#70819
1=
#71006
1>
#73371
1A
1D
1G
1N
#73973
1Q
#74202
1Y
#80000
0%
1.
#80924
0=
#81097
0>
#90000
1%
0.
#90819
1=
#91006
1>
#93371
1R
1Z
#93806
1S
#96090
1<
1-
#96436
18
1&
#100000
0%
1.
#100924
0=
#101097
0>
#110000
1%
0.
#110819
1=
#111006
1>
#113371
1T
#117485
19
1*
#120000
0%
1.
#120924
0=
#121097
0>
#130000
1%
0.
#130819
1=
#131006
1>
#140000
0%
1.
#140924
0=
#141097
0>
#150000
1%
0.
#150819
1=
#151006
1>
#160000
0%
1.
#160924
0=
#161097
0>
#170000
0!
0"
0#
0$
1%
0.
#170819
1=
#170854
0L
#170904
0E
0?
#170914
0B
#171006
1>
#174044
0F
#174047
0@
#174300
0M
#174340
0C
#180000
0%
1.
#180924
0=
#181097
0>
#190000
1%
0.
#190819
1=
#191006
1>
#193371
0A
0D
0G
0N
#193890
0Y
#193915
0Q
#200000
0%
1.
#200924
0=
#201097
0>
#210000
1%
0.
#210819
1=
#211006
1>
#213371
0R
0Z
#213863
0S
#216089
0<
0-
#216478
08
0&
#220000
0%
1.
#220924
0=
#221097
0>
#230000
1%
0.
#230819
1=
#231006
1>
#233371
0T
#237577
09
0*
#240000
0%
1.
#240924
0=
#241097
0>
#250000
1!
1#
1%
0.
#250749
1L
#250799
1?
#250819
1=
#251006
1>
#253708
1@
#253979
1M
#260000
0%
1.
#260924
0=
#261097
0>
#270000
1%
0.
#270819
1=
#271006
1>
#273371
1A
1N
#273973
1Q
#280000
0%
1.
#280924
0=
#281097
0>
#290000
1%
0.
#290819
1=
#291006
1>
#293371
1R
#293806
1S
#296436
18
1&
#300000
0%
1.
#300924
0=
#301097
0>
#310000
1%
0.
#310819
1=
#311006
1>
#313371
1T
#317485
19
1*
#320000
0%
1.
#320924
0=
#321097
0>
#330000
1%
0.
#330819
1=
#331006
1>
#340000
0%
1.
#340924
0=
#341097
0>
#350000
1%
0.
#350819
1=
#351006
1>
#360000
0%
1.
#360924
0=
#361097
0>
#370000
1%
0.
#370819
1=
#371006
1>
#380000
0!
0#
0%
1.
#380854
0L
#380904
0?
#380924
0=
#381097
0>
#384047
0@
#384300
0M
#390000
1%
0.
#390819
1=
#391006
1>
#393371
0A
0N
#393915
0Q
#400000
0%
1.
#400924
0=
#401097
0>
#410000
1%
0.
#410819
1=
#411006
1>
#413371
0R
#413863
0S
#416478
08
0&
#420000
0%
1.
#420924
0=
#421097
0>
#430000
1%
0.
#430819
1=
#431006
1>
#433371
0T
#437577
09
0*
#440000
0%
1.
#440924
0=
#441097
0>
#450000
1"
1$
1%
0.
#450799
1E
#450809
1B
#450819
1=
#451006
1>
#453705
1F
#454007
1C
#460000
0%
1.
#460924
0=
#461097
0>
#470000
1%
0.
#470819
1=
#471006
1>
#473371
1D
1G
#474135
1W
#474137
1J
#480000
0%
1.
#480924
0=
#481097
0>
#490000
1%
0.
#490819
1=
#491006
1>
#493371
1K
1X
#496365
16
1(
#496407
1;
1,
#500000
0%
1.
#500924
0=
#501097
0>
#510000
1%
0.
#510819
1=
#511006
1>
#520000
0%
1.
#520924
0=
#521097
0>
#530000
1%
0.
#530819
1=
#531006
1>
#540000
0%
1.
#540924
0=
#541097
0>
#550000
1%
0.
#550819
1=
#551006
1>
#560000
0%
1.
#560924
0=
#561097
0>
#570000
1%
0.
#570819
1=
#571006
1>
#580000
0"
0$
0%
1.
#580904
0E
#580914
0B
#580924
0=
#581097
0>
#584044
0F
#584340
0C
#590000
1%
0.
#590819
1=
#591006
1>
#593371
0D
0G
#593909
0J
#593910
0W
#600000
0%
1.
#600924
0=
#601097
0>
#610000
1%
0.
#610819
1=
#611006
1>
#613371
0K
0X
#616375
06
0(
#616445
0;
0,
#620000
0%
1.
#620924
0=
#621097
0>
#630000
1%
0.
#630819
1=
#631006
1>
#640000
0%
1.
#640924
0=
#641097
0>
#650000
1%
0.
#650819
1=
#651006
1>
#660000
0%
1.
#660924
0=
#661097
0>
#670000
1%
0.
#670819
1=
#671006
1>
#680000
0%
1.
#680924
0=
#681097
0>
#690000
1%
0.
#690819
1=
#691006
1>
#700000
0%
1.
#700924
0=
#701097
0>
#710000
1%
0.
#710819
1=
#711006
1>
#720000
0%
1.
#720924
0=
#721097
0>
#730000
1%
0.
#730819
1=
#731006
1>
#740000
0%
1.
#740924
0=
#741097
0>
#750000
1%
0.
#750819
1=
#751006
1>
#760000
0%
1.
#760924
0=
#761097
0>
#770000
1%
0.
#770819
1=
#771006
1>
#780000
0%
1.
#780924
0=
#781097
0>
#790000
1%
0.
#790819
1=
#791006
1>
#800000
0%
1.
#800924
0=
#801097
0>
#810000
1%
0.
#810819
1=
#811006
1>
#820000
0%
1.
#820924
0=
#821097
0>
#830000
1%
0.
#830819
1=
#831006
1>
#840000
0%
1.
#840924
0=
#841097
0>
#850000
1%
0.
#850819
1=
#851006
1>
#860000
0%
1.
#860924
0=
#861097
0>
#870000
1%
0.
#870819
1=
#871006
1>
#880000
0%
1.
#880924
0=
#881097
0>
#890000
1%
0.
#890819
1=
#891006
1>
#900000
0%
1.
#900924
0=
#901097
0>
#910000
1%
0.
#910819
1=
#911006
1>
#920000
0%
1.
#920924
0=
#921097
0>
#930000
1%
0.
#930819
1=
#931006
1>
#940000
0%
1.
#940924
0=
#941097
0>
#950000
1%
0.
#950819
1=
#951006
1>
#960000
0%
1.
#960924
0=
#961097
0>
#970000
1%
0.
#970819
1=
#971006
1>
#980000
0%
1.
#980924
0=
#981097
0>
#990000
1%
0.
#990819
1=
