ParteE/Template/simulation/qsim/Template.msim.vcd
$comment
	File created using the following command:
		vcd file Template.msim.vcd -direction
$end
$date
	Mon Oct 20 16:53:29 2025
$end
$version
	ModelSim Version 10.1d
$end
$timescale
	1ps
$end
$scope module Template_vlg_vec_tst $end
$var reg 1 ! clk $end
$var reg 1 " reset $end
$var reg 1 # X_in $end
$var wire 1 $ d_out [3] $end
$var wire 1 % d_out [2] $end
$var wire 1 & d_out [1] $end
$var wire 1 ' d_out [0] $end
$var wire 1 ( sampler $end
$scope module i1 $end
$var wire 1 ) gnd $end
$var wire 1 * vcc $end
$var wire 1 + unknown $end
$var tri1 1 , devclrn $end
$var tri1 1 - devpor $end
$var tri1 1 . devoe $end
$var wire 1 / clk~input_o $end
$var wire 1 0 clk~inputclkctrl_outclk $end
$var wire 1 1 d_out[0]~output_o $end
$var wire 1 2 d_out[1]~output_o $end
$var wire 1 3 d_out[2]~output_o $end
$var wire 1 4 d_out[3]~output_o $end
$var wire 1 5 X_in~input_o $end
$var wire 1 6 Selector6~0_combout $end
$var wire 1 7 reset~input_o $end
$var wire 1 8 reset~inputclkctrl_outclk $end
$var wire 1 9 state.s6~q $end
$var wire 1 : Selector5~0_combout $end
$var wire 1 ; state.s5~q $end
$var wire 1 < state.s0~0_combout $end
$var wire 1 = state.s0~q $end
$var wire 1 > Selector1~0_combout $end
$var wire 1 ? state.s1~q $end
$var wire 1 @ Selector3~0_combout $end
$var wire 1 A state.s3~q $end
$var wire 1 B state.s4~feeder_combout $end
$var wire 1 C state.s4~q $end
$var wire 1 D Selector2~0_combout $end
$var wire 1 E state.s2~q $end
$var wire 1 F d_out~0_combout $end
$var wire 1 G WideOr2~combout $end
$var wire 1 H WideOr1~0_combout $end
$var wire 1 I d_out~1_combout $end
$upscope $end
$upscope $end
$enddefinitions $end
#0
$dumpvars
0!
0"
1#
0'
0&
0%
0$
x(
0)
1*
x+
1,
1-
1.
0/
00
01
02
03
04
15
06
07
08
09
0:
0;
1<
0=
1>
0?
0@
0A
0B
0C
0D
0E
0F
0G
1H
1I
$end
#50000
1!
1/
10
0(
1?
1=
1D
0H
0>
1G
13
12
1%
1&
#100000
0!
0/
00
1(
#150000
1!
1/
10
0(
1E
0?
1:
0I
0D
1F
14
11
1$
1'
#200000
0!
0/
00
1(
#250000
1!
1/
10
0(
0E
1;
0:
1H
0<
0G
03
02
0%
0&
#300000
0!
0/
00
1(
#350000
1!
1/
10
0(
0=
0;
1I
1>
1<
0F
04
01
0$
0'
#400000
0!
0/
00
1(
#410000
0#
05
0(
1@
0>
#450000
1!
1/
10
1(
1A
1=
1B
0I
0@
14
1$
#500000
0!
0/
00
0(
#550000
1!
1/
10
1(
1C
0A
1D
0H
0B
13
1%
#600000
0!
0/
00
0(
#650000
1!
1/
10
1(
1E
0C
16
0D
1G
1F
12
11
1&
1'
#700000
0!
0/
00
0(
#750000
1!
1/
10
1(
0E
19
06
1D
0F
01
0'
#800000
0!
0/
00
0(
#850000
1!
1/
10
1(
1E
09
16
0D
1F
11
1'
#900000
0!
0/
00
0(
#950000
1!
1/
10
1(
0E
19
06
1D
0F
01
0'
